[
  {
      "id": 1,
      "lat": 37.798505,
      "lng": -122.430562,
      "title": "Melt House",
      "marker-icon": "marker-melt-house",
      "logo-image" : "melt-house",
      "appearAnimation": 1
  },
  {
      "id": 2,
      "lat": 37.791384,
      "lng": -122.439832,
      "title": "Taco Gogo",
      "marker-icon": "marker-taco-gogo",
      "logo-image" : "taco-gogo",
      "appearAnimation": 1
  },
  {
      "id": 3,
      "lat": 37.786297,
      "lng": -122.452964,
      "title": "B'klyn Buggy Bowl",
      "marker-icon": "marker-brooklyn-buggy-bowl",
      "logo-image" : "brooklyn-buggy-bowl",
      "appearAnimation": 1
  },
  {
      "id": 4,
      "lat": 37.799319,
      "lng": -122.415713,
      "title": "King Cupcake",
      "marker-icon": "marker-king-cupcake",
      "logo-image" : "king-cupcake",
      "appearAnimation": 1
  },
  {
      "id": 5,
      "lat": 37.773362,
      "lng": -122.433988,
      "title": "Let's Roll",
      "marker-icon": "marker-lets-roll",
      "logo-image" : "lets-roll",
      "appearAnimation": 1
  },
  {
      "id": 6,
      "lat": 37.789666,
      "lng": -122.418814,
      "title": "Burger Bros",
      "marker-icon": "marker-burger-bros",
      "logo-image" : "burger-bros",
      "appearAnimation": 1
  }
]